solid Face006 (Meshed)
  facet normal 0.600140 -0.346491 -0.720955
    outer loop
      vertex 0.710189 0.378647 -0.176336
      vertex 0.635081 0.386654 -0.242705
      vertex 0.665701 0.439690 -0.242705
    endloop
  endfacet
  facet normal -0.848359 0.489800 -0.200956
    outer loop
      vertex 0.231890 0.597584 -0.092705
      vertex 0.240192 0.650000 0.000000
      vertex 0.281435 0.683398 -0.092705
    endloop
  endfacet
  facet normal 0.126245 0.715968 -0.686623
    outer loop
      vertex 0.500000 0.742705 -0.176336
      vertex 0.583010 0.728068 -0.176336
      vertex 0.530620 0.673657 -0.242705
    endloop
  endfacet
  facet normal -0.787464 0.454642 -0.416175
    outer loop
      vertex 0.231890 0.597584 -0.092705
      vertex 0.281435 0.683398 -0.092705
      vertex 0.289811 0.621353 -0.176336
    endloop
  endfacet
  facet normal 0.556924 -0.467315 -0.686624
    outer loop
      vertex 0.710189 0.378647 -0.176336
      vertex 0.656008 0.314077 -0.176336
      vertex 0.635081 0.386654 -0.242705
    endloop
  endfacet
  facet normal 0.121638 0.102067 -0.987313
    outer loop
      vertex 0.559590 0.571016 -0.285317
      vertex 0.580285 0.546353 -0.285317
      vertex 0.500000 0.500000 -0.300000
    endloop
  endfacet
  facet normal 0.000000 0.692983 -0.720954
    outer loop
      vertex 0.500000 0.742705 -0.176336
      vertex 0.530620 0.673657 -0.242705
      vertex 0.469380 0.673657 -0.242705
    endloop
  endfacet
  facet normal 0.378051 -0.912695 -0.155128
    outer loop
      vertex 0.642658 0.252908 -0.092705
      vertex 0.650000 0.240192 0.000000
      vertex 0.577646 0.210222 0.000000
    endloop
  endfacet
  facet normal 0.601392 0.783749 -0.155129
    outer loop
      vertex 0.642658 0.747092 -0.092705
      vertex 0.650000 0.759808 0.000000
      vertex 0.712132 0.712132 0.000000
    endloop
  endfacet
  facet normal 0.601392 -0.783749 -0.155128
    outer loop
      vertex 0.642658 0.252908 -0.092705
      vertex 0.712132 0.287868 0.000000
      vertex 0.650000 0.240192 0.000000
    endloop
  endfacet
  facet normal 0.378051 0.912695 -0.155129
    outer loop
      vertex 0.642658 0.747092 -0.092705
      vertex 0.577646 0.789778 0.000000
      vertex 0.650000 0.759808 0.000000
    endloop
  endfacet
  facet normal 0.437439 -0.757666 -0.484345
    outer loop
      vertex 0.642658 0.252908 -0.092705
      vertex 0.583010 0.271932 -0.176336
      vertex 0.656008 0.314077 -0.176336
    endloop
  endfacet
  facet normal -0.027573 -0.156375 -0.987313
    outer loop
      vertex 0.500000 0.407295 -0.285317
      vertex 0.468293 0.412886 -0.285317
      vertex 0.500000 0.500000 -0.300000
    endloop
  endfacet
  facet normal 0.335833 -0.922695 -0.189339
    outer loop
      vertex 0.642658 0.252908 -0.092705
      vertex 0.577646 0.210222 0.000000
      vertex 0.549545 0.219018 -0.092705
    endloop
  endfacet
  facet normal 0.437438 0.757666 -0.484345
    outer loop
      vertex 0.642658 0.747092 -0.092705
      vertex 0.656008 0.685923 -0.176336
      vertex 0.583010 0.728068 -0.176336
    endloop
  endfacet
  facet normal 0.310993 -0.854448 -0.416175
    outer loop
      vertex 0.642658 0.252908 -0.092705
      vertex 0.549545 0.219018 -0.092705
      vertex 0.583010 0.271932 -0.176336
    endloop
  endfacet
  facet normal 0.584477 0.696553 -0.416175
    outer loop
      vertex 0.642658 0.747092 -0.092705
      vertex 0.718565 0.683398 -0.092705
      vertex 0.656008 0.685923 -0.176336
    endloop
  endfacet
  facet normal 0.793306 -0.010951 -0.608725
    outer loop
      vertex 0.739018 0.457855 -0.176336
      vertex 0.712132 0.500000 -0.212132
      vertex 0.759808 0.500000 -0.150000
    endloop
  endfacet
  facet normal 0.631161 0.752188 -0.189339
    outer loop
      vertex 0.642658 0.747092 -0.092705
      vertex 0.712132 0.712132 0.000000
      vertex 0.718565 0.683398 -0.092705
    endloop
  endfacet
  facet normal 0.684101 -0.166704 -0.710082
    outer loop
      vertex 0.739018 0.457855 -0.176336
      vertex 0.665701 0.439690 -0.242705
      vertex 0.712132 0.500000 -0.212132
    endloop
  endfacet
  facet normal 0.683169 -0.248653 -0.686624
    outer loop
      vertex 0.739018 0.457855 -0.176336
      vertex 0.710189 0.378647 -0.176336
      vertex 0.665701 0.439690 -0.242705
    endloop
  endfacet
  facet normal 0.631161 -0.752188 -0.189339
    outer loop
      vertex 0.718565 0.316602 -0.092705
      vertex 0.712132 0.287868 0.000000
      vertex 0.642658 0.252908 -0.092705
    endloop
  endfacet
  facet normal 0.607420 0.066344 -0.791606
    outer loop
      vertex 0.665701 0.560310 -0.242705
      vertex 0.712132 0.500000 -0.212132
      vertex 0.650000 0.500000 -0.259808
    endloop
  endfacet
  facet normal 0.786363 -0.603398 -0.132451
    outer loop
      vertex 0.718565 0.316602 -0.092705
      vertex 0.759808 0.350000 0.000000
      vertex 0.712132 0.287868 0.000000
    endloop
  endfacet
  facet normal -0.223995 -0.387971 -0.894038
    outer loop
      vertex 0.411832 0.347289 -0.242705
      vertex 0.440410 0.428984 -0.285317
      vertex 0.468293 0.412886 -0.285317
    endloop
  endfacet
  facet normal -0.149211 0.054308 -0.987313
    outer loop
      vertex 0.408703 0.516098 -0.285317
      vertex 0.419715 0.546353 -0.285317
      vertex 0.500000 0.500000 -0.300000
    endloop
  endfacet
  facet normal 0.427015 0.142067 -0.893014
    outer loop
      vertex 0.665701 0.560310 -0.242705
      vertex 0.650000 0.500000 -0.259808
      vertex 0.591297 0.516098 -0.285317
    endloop
  endfacet
  facet normal 0.670195 -0.562360 -0.484345
    outer loop
      vertex 0.718565 0.316602 -0.092705
      vertex 0.656008 0.314077 -0.176336
      vertex 0.710189 0.378647 -0.176336
    endloop
  endfacet
  facet normal -0.299408 -0.356820 -0.884892
    outer loop
      vertex 0.411832 0.347289 -0.242705
      vertex 0.364919 0.386654 -0.242705
      vertex 0.440410 0.428984 -0.285317
    endloop
  endfacet
  facet normal 0.420974 0.153222 -0.894038
    outer loop
      vertex 0.665701 0.560310 -0.242705
      vertex 0.591297 0.516098 -0.285317
      vertex 0.580285 0.546353 -0.285317
    endloop
  endfacet
  facet normal 0.584477 -0.696552 -0.416175
    outer loop
      vertex 0.718565 0.316602 -0.092705
      vertex 0.642658 0.252908 -0.092705
      vertex 0.656008 0.314077 -0.176336
    endloop
  endfacet
  facet normal 0.964934 -0.185610 -0.185610
    outer loop
      vertex 0.768110 0.402416 -0.092705
      vertex 0.789778 0.500000 -0.077646
      vertex 0.789778 0.422354 0.000000
    endloop
  endfacet
  facet normal 0.848359 -0.489800 -0.200957
    outer loop
      vertex 0.768110 0.402416 -0.092705
      vertex 0.759808 0.350000 0.000000
      vertex 0.718565 0.316602 -0.092705
    endloop
  endfacet
  facet normal 0.915740 -0.379312 -0.132452
    outer loop
      vertex 0.768110 0.402416 -0.092705
      vertex 0.789778 0.422354 0.000000
      vertex 0.759808 0.350000 0.000000
    endloop
  endfacet
  facet normal 0.914177 -0.144547 -0.378664
    outer loop
      vertex 0.768110 0.402416 -0.092705
      vertex 0.759808 0.500000 -0.150000
      vertex 0.789778 0.500000 -0.077646
    endloop
  endfacet
  facet normal 0.888834 -0.173410 -0.424151
    outer loop
      vertex 0.768110 0.402416 -0.092705
      vertex 0.739018 0.457855 -0.176336
      vertex 0.759808 0.500000 -0.150000
    endloop
  endfacet
  facet normal 0.822116 -0.299225 -0.484345
    outer loop
      vertex 0.768110 0.402416 -0.092705
      vertex 0.710189 0.378647 -0.176336
      vertex 0.739018 0.457855 -0.176336
    endloop
  endfacet
  facet normal 0.787464 -0.454642 -0.416175
    outer loop
      vertex 0.768110 0.402416 -0.092705
      vertex 0.718565 0.316602 -0.092705
      vertex 0.710189 0.378647 -0.176336
    endloop
  endfacet
  facet normal -0.343181 0.287963 -0.894038
    outer loop
      vertex 0.364919 0.613346 -0.242705
      vertex 0.440410 0.571016 -0.285317
      vertex 0.419715 0.546353 -0.285317
    endloop
  endfacet
  facet normal 0.983106 0.129428 -0.129428
    outer loop
      vertex 0.789778 0.577646 0.000000
      vertex 0.800000 0.500000 -0.000000
      vertex 0.789778 0.500000 -0.077646
    endloop
  endfacet
  facet normal -0.600140 -0.346491 -0.720954
    outer loop
      vertex 0.289811 0.378647 -0.176336
      vertex 0.334299 0.439690 -0.242705
      vertex 0.364919 0.386654 -0.242705
    endloop
  endfacet
  facet normal -0.683169 -0.248653 -0.686623
    outer loop
      vertex 0.289811 0.378647 -0.176336
      vertex 0.260982 0.457855 -0.176336
      vertex 0.334299 0.439690 -0.242705
    endloop
  endfacet
  facet normal 0.079394 0.137514 -0.987313
    outer loop
      vertex 0.531707 0.587114 -0.285317
      vertex 0.559590 0.571016 -0.285317
      vertex 0.500000 0.500000 -0.300000
    endloop
  endfacet
  facet normal -0.979443 0.128946 -0.155128
    outer loop
      vertex 0.214683 0.500000 -0.092705
      vertex 0.200000 0.500000 0.000000
      vertex 0.210222 0.577646 0.000000
    endloop
  endfacet
  facet normal -0.299408 0.356820 -0.884892
    outer loop
      vertex 0.364919 0.613346 -0.242705
      vertex 0.411832 0.652711 -0.242705
      vertex 0.440410 0.571016 -0.285317
    endloop
  endfacet
  facet normal -0.979443 -0.128946 -0.155128
    outer loop
      vertex 0.214683 0.500000 -0.092705
      vertex 0.210222 0.422354 0.000000
      vertex 0.200000 0.500000 0.000000
    endloop
  endfacet
  facet normal -0.895470 0.157896 -0.416175
    outer loop
      vertex 0.214683 0.500000 -0.092705
      vertex 0.231890 0.597584 -0.092705
      vertex 0.260982 0.542145 -0.176336
    endloop
  endfacet
  facet normal -0.874877 0.000000 -0.484345
    outer loop
      vertex 0.214683 0.500000 -0.092705
      vertex 0.260982 0.542145 -0.176336
      vertex 0.260982 0.457855 -0.176336
    endloop
  endfacet
  facet normal -0.237014 0.651191 -0.720954
    outer loop
      vertex 0.416990 0.728068 -0.176336
      vertex 0.469380 0.673657 -0.242705
      vertex 0.411832 0.652711 -0.242705
    endloop
  endfacet
  facet normal -0.966994 0.170507 -0.189339
    outer loop
      vertex 0.214683 0.500000 -0.092705
      vertex 0.210222 0.577646 0.000000
      vertex 0.231890 0.597584 -0.092705
    endloop
  endfacet
  facet normal -0.126245 0.715968 -0.686623
    outer loop
      vertex 0.416990 0.728068 -0.176336
      vertex 0.500000 0.742705 -0.176336
      vertex 0.469380 0.673657 -0.242705
    endloop
  endfacet
  facet normal 0.343181 0.287963 -0.894038
    outer loop
      vertex 0.635081 0.613346 -0.242705
      vertex 0.580285 0.546353 -0.285317
      vertex 0.559590 0.571016 -0.285317
    endloop
  endfacet
  facet normal 0.027573 -0.156375 -0.987313
    outer loop
      vertex 0.531707 0.412886 -0.285317
      vertex 0.500000 0.407295 -0.285317
      vertex 0.500000 0.500000 -0.300000
    endloop
  endfacet
  facet normal 0.129376 0.982710 -0.132451
    outer loop
      vertex 0.549545 0.780982 -0.092705
      vertex 0.500000 0.800000 0.000000
      vertex 0.577646 0.789778 0.000000
    endloop
  endfacet
  facet normal 0.403391 0.232898 -0.884892
    outer loop
      vertex 0.635081 0.613346 -0.242705
      vertex 0.665701 0.560310 -0.242705
      vertex 0.580285 0.546353 -0.285317
    endloop
  endfacet
  facet normal 0.151921 0.861585 -0.484345
    outer loop
      vertex 0.549545 0.780982 -0.092705
      vertex 0.583010 0.728068 -0.176336
      vertex 0.500000 0.742705 -0.176336
    endloop
  endfacet
  facet normal 0.335834 0.922695 -0.189339
    outer loop
      vertex 0.549545 0.780982 -0.092705
      vertex 0.577646 0.789778 0.000000
      vertex 0.642658 0.747092 -0.092705
    endloop
  endfacet
  facet normal 0.310994 0.854448 -0.416175
    outer loop
      vertex 0.549545 0.780982 -0.092705
      vertex 0.642658 0.747092 -0.092705
      vertex 0.583010 0.728068 -0.176336
    endloop
  endfacet
  facet normal -0.159312 -0.437705 -0.884892
    outer loop
      vertex 0.469380 0.326343 -0.242705
      vertex 0.411832 0.347289 -0.242705
      vertex 0.468293 0.412886 -0.285317
    endloop
  endfacet
  facet normal 0.793306 0.010951 -0.608725
    outer loop
      vertex 0.739018 0.542145 -0.176336
      vertex 0.759808 0.500000 -0.150000
      vertex 0.712132 0.500000 -0.212132
    endloop
  endfacet
  facet normal 0.684101 0.166704 -0.710082
    outer loop
      vertex 0.739018 0.542145 -0.176336
      vertex 0.712132 0.500000 -0.212132
      vertex 0.665701 0.560310 -0.242705
    endloop
  endfacet
  facet normal -0.077793 -0.441185 -0.894038
    outer loop
      vertex 0.469380 0.326343 -0.242705
      vertex 0.468293 0.412886 -0.285317
      vertex 0.500000 0.407295 -0.285317
    endloop
  endfacet
  facet normal -0.158788 0.000000 -0.987313
    outer loop
      vertex 0.408703 0.483902 -0.285317
      vertex 0.408703 0.516098 -0.285317
      vertex 0.500000 0.500000 -0.300000
    endloop
  endfacet
  facet normal -0.556924 -0.467315 -0.686623
    outer loop
      vertex 0.343992 0.314077 -0.176336
      vertex 0.289811 0.378647 -0.176336
      vertex 0.364919 0.386654 -0.242705
    endloop
  endfacet
  facet normal -0.445441 -0.530855 -0.720954
    outer loop
      vertex 0.343992 0.314077 -0.176336
      vertex 0.364919 0.386654 -0.242705
      vertex 0.411832 0.347289 -0.242705
    endloop
  endfacet
  facet normal 0.027573 0.156375 -0.987313
    outer loop
      vertex 0.500000 0.592705 -0.285317
      vertex 0.531707 0.587114 -0.285317
      vertex 0.500000 0.500000 -0.300000
    endloop
  endfacet
  facet normal -0.822115 -0.299226 -0.484345
    outer loop
      vertex 0.231890 0.402416 -0.092705
      vertex 0.260982 0.457855 -0.176336
      vertex 0.289811 0.378647 -0.176336
    endloop
  endfacet
  facet normal -0.420974 0.153222 -0.894038
    outer loop
      vertex 0.334299 0.560310 -0.242705
      vertex 0.419715 0.546353 -0.285317
      vertex 0.408703 0.516098 -0.285317
    endloop
  endfacet
  facet normal -0.915740 -0.379312 -0.132451
    outer loop
      vertex 0.231890 0.402416 -0.092705
      vertex 0.240192 0.350000 0.000000
      vertex 0.210222 0.422354 0.000000
    endloop
  endfacet
  facet normal -0.895471 -0.157896 -0.416175
    outer loop
      vertex 0.231890 0.402416 -0.092705
      vertex 0.214683 0.500000 -0.092705
      vertex 0.260982 0.457855 -0.176336
    endloop
  endfacet
  facet normal -0.403391 0.232898 -0.884892
    outer loop
      vertex 0.334299 0.560310 -0.242705
      vertex 0.364919 0.613346 -0.242705
      vertex 0.419715 0.546353 -0.285317
    endloop
  endfacet
  facet normal -0.966994 -0.170507 -0.189339
    outer loop
      vertex 0.231890 0.402416 -0.092705
      vertex 0.210222 0.422354 0.000000
      vertex 0.214683 0.500000 -0.092705
    endloop
  endfacet
  facet normal 0.223995 0.387972 -0.894038
    outer loop
      vertex 0.588168 0.652711 -0.242705
      vertex 0.559590 0.571016 -0.285317
      vertex 0.531707 0.587114 -0.285317
    endloop
  endfacet
  facet normal 0.299408 0.356820 -0.884892
    outer loop
      vertex 0.588168 0.652711 -0.242705
      vertex 0.635081 0.613346 -0.242705
      vertex 0.559590 0.571016 -0.285317
    endloop
  endfacet
  facet normal 0.079394 -0.137514 -0.987313
    outer loop
      vertex 0.559590 0.428984 -0.285317
      vertex 0.531707 0.412886 -0.285317
      vertex 0.500000 0.500000 -0.300000
    endloop
  endfacet
  facet normal -0.445441 0.530855 -0.720954
    outer loop
      vertex 0.343992 0.685923 -0.176336
      vertex 0.411832 0.652711 -0.242705
      vertex 0.364919 0.613346 -0.242705
    endloop
  endfacet
  facet normal -0.363506 0.629612 -0.686623
    outer loop
      vertex 0.343992 0.685923 -0.176336
      vertex 0.416990 0.728068 -0.176336
      vertex 0.411832 0.652711 -0.242705
    endloop
  endfacet
  facet normal -0.000000 -0.465796 -0.884892
    outer loop
      vertex 0.530620 0.326343 -0.242705
      vertex 0.469380 0.326343 -0.242705
      vertex 0.500000 0.407295 -0.285317
    endloop
  endfacet
  facet normal -0.129376 0.982710 -0.132451
    outer loop
      vertex 0.450455 0.780982 -0.092705
      vertex 0.422354 0.789778 0.000000
      vertex 0.500000 0.800000 0.000000
    endloop
  endfacet
  facet normal 0.683169 0.248653 -0.686624
    outer loop
      vertex 0.710189 0.621353 -0.176336
      vertex 0.739018 0.542145 -0.176336
      vertex 0.665701 0.560310 -0.242705
    endloop
  endfacet
  facet normal 0.000000 0.979600 -0.200956
    outer loop
      vertex 0.450455 0.780982 -0.092705
      vertex 0.500000 0.800000 0.000000
      vertex 0.549545 0.780982 -0.092705
    endloop
  endfacet
  facet normal 0.000000 0.909284 -0.416175
    outer loop
      vertex 0.450455 0.780982 -0.092705
      vertex 0.549545 0.780982 -0.092705
      vertex 0.500000 0.742705 -0.176336
    endloop
  endfacet
  facet normal 0.600141 0.346491 -0.720954
    outer loop
      vertex 0.710189 0.621353 -0.176336
      vertex 0.665701 0.560310 -0.242705
      vertex 0.635081 0.613346 -0.242705
    endloop
  endfacet
  facet normal -0.151921 0.861585 -0.484345
    outer loop
      vertex 0.450455 0.780982 -0.092705
      vertex 0.500000 0.742705 -0.176336
      vertex 0.416990 0.728068 -0.176336
    endloop
  endfacet
  facet normal 0.077793 -0.441185 -0.894038
    outer loop
      vertex 0.530620 0.326343 -0.242705
      vertex 0.500000 0.407295 -0.285317
      vertex 0.531707 0.412886 -0.285317
    endloop
  endfacet
  facet normal -0.363507 -0.629612 -0.686623
    outer loop
      vertex 0.416990 0.271932 -0.176336
      vertex 0.343992 0.314077 -0.176336
      vertex 0.411832 0.347289 -0.242705
    endloop
  endfacet
  facet normal -0.237014 -0.651191 -0.720954
    outer loop
      vertex 0.416990 0.271932 -0.176336
      vertex 0.411832 0.347289 -0.242705
      vertex 0.469380 0.326343 -0.242705
    endloop
  endfacet
  facet normal -0.027573 0.156375 -0.987313
    outer loop
      vertex 0.468293 0.587114 -0.285317
      vertex 0.500000 0.592705 -0.285317
      vertex 0.500000 0.500000 -0.300000
    endloop
  endfacet
  facet normal -0.670195 -0.562360 -0.484345
    outer loop
      vertex 0.281435 0.316602 -0.092705
      vertex 0.289811 0.378647 -0.176336
      vertex 0.343992 0.314077 -0.176336
    endloop
  endfacet
  facet normal -0.149211 -0.054309 -0.987313
    outer loop
      vertex 0.419715 0.453647 -0.285317
      vertex 0.408703 0.483902 -0.285317
      vertex 0.500000 0.500000 -0.300000
    endloop
  endfacet
  facet normal -0.786364 -0.603398 -0.132451
    outer loop
      vertex 0.281435 0.316602 -0.092705
      vertex 0.287868 0.287868 0.000000
      vertex 0.240192 0.350000 0.000000
    endloop
  endfacet
  facet normal -0.848359 -0.489800 -0.200956
    outer loop
      vertex 0.281435 0.316602 -0.092705
      vertex 0.240192 0.350000 0.000000
      vertex 0.231890 0.402416 -0.092705
    endloop
  endfacet
  facet normal -0.787463 -0.454642 -0.416175
    outer loop
      vertex 0.281435 0.316602 -0.092705
      vertex 0.231890 0.402416 -0.092705
      vertex 0.289811 0.378647 -0.176336
    endloop
  endfacet
  facet normal 0.121638 -0.102067 -0.987313
    outer loop
      vertex 0.580285 0.453647 -0.285317
      vertex 0.559590 0.428984 -0.285317
      vertex 0.500000 0.500000 -0.300000
    endloop
  endfacet
  facet normal -0.447991 0.000000 -0.894038
    outer loop
      vertex 0.323664 0.500000 -0.242705
      vertex 0.408703 0.516098 -0.285317
      vertex 0.408703 0.483902 -0.285317
    endloop
  endfacet
  facet normal 0.159311 0.437705 -0.884892
    outer loop
      vertex 0.530620 0.673657 -0.242705
      vertex 0.588168 0.652711 -0.242705
      vertex 0.531707 0.587114 -0.285317
    endloop
  endfacet
  facet normal -0.458719 0.080885 -0.884892
    outer loop
      vertex 0.323664 0.500000 -0.242705
      vertex 0.334299 0.560310 -0.242705
      vertex 0.408703 0.516098 -0.285317
    endloop
  endfacet
  facet normal 0.077793 0.441185 -0.894038
    outer loop
      vertex 0.530620 0.673657 -0.242705
      vertex 0.531707 0.587114 -0.285317
      vertex 0.500000 0.592705 -0.285317
    endloop
  endfacet
  facet normal -0.600141 0.346491 -0.720954
    outer loop
      vertex 0.289811 0.621353 -0.176336
      vertex 0.364919 0.613346 -0.242705
      vertex 0.334299 0.560310 -0.242705
    endloop
  endfacet
  facet normal -0.556925 0.467315 -0.686623
    outer loop
      vertex 0.289811 0.621353 -0.176336
      vertex 0.343992 0.685923 -0.176336
      vertex 0.364919 0.613346 -0.242705
    endloop
  endfacet
  facet normal 0.223995 -0.387971 -0.894038
    outer loop
      vertex 0.588168 0.347289 -0.242705
      vertex 0.531707 0.412886 -0.285317
      vertex 0.559590 0.428984 -0.285317
    endloop
  endfacet
  facet normal 0.445441 0.530855 -0.720954
    outer loop
      vertex 0.656008 0.685923 -0.176336
      vertex 0.635081 0.613346 -0.242705
      vertex 0.588168 0.652711 -0.242705
    endloop
  endfacet
  facet normal 0.159312 -0.437705 -0.884892
    outer loop
      vertex 0.588168 0.347289 -0.242705
      vertex 0.530620 0.326343 -0.242705
      vertex 0.531707 0.412886 -0.285317
    endloop
  endfacet
  facet normal 0.556924 0.467315 -0.686623
    outer loop
      vertex 0.656008 0.685923 -0.176336
      vertex 0.710189 0.621353 -0.176336
      vertex 0.635081 0.613346 -0.242705
    endloop
  endfacet
  facet normal 0.915740 0.379312 -0.132452
    outer loop
      vertex 0.768110 0.597584 -0.092705
      vertex 0.759808 0.650000 0.000000
      vertex 0.789778 0.577646 0.000000
    endloop
  endfacet
  facet normal -0.378051 0.912695 -0.155129
    outer loop
      vertex 0.357342 0.747092 -0.092705
      vertex 0.350000 0.759808 0.000000
      vertex 0.422354 0.789778 0.000000
    endloop
  endfacet
  facet normal -0.601392 0.783749 -0.155129
    outer loop
      vertex 0.357342 0.747092 -0.092705
      vertex 0.287868 0.712132 0.000000
      vertex 0.350000 0.759808 0.000000
    endloop
  endfacet
  facet normal 0.888833 0.173410 -0.424151
    outer loop
      vertex 0.768110 0.597584 -0.092705
      vertex 0.759808 0.500000 -0.150000
      vertex 0.739018 0.542145 -0.176336
    endloop
  endfacet
  facet normal 0.914177 0.144547 -0.378664
    outer loop
      vertex 0.768110 0.597584 -0.092705
      vertex 0.789778 0.500000 -0.077646
      vertex 0.759808 0.500000 -0.150000
    endloop
  endfacet
  facet normal -0.437438 0.757666 -0.484345
    outer loop
      vertex 0.357342 0.747092 -0.092705
      vertex 0.416990 0.728068 -0.176336
      vertex 0.343992 0.685923 -0.176336
    endloop
  endfacet
  facet normal 0.964934 0.185610 -0.185610
    outer loop
      vertex 0.768110 0.597584 -0.092705
      vertex 0.789778 0.577646 0.000000
      vertex 0.789778 0.500000 -0.077646
    endloop
  endfacet
  facet normal -0.335834 0.922695 -0.189339
    outer loop
      vertex 0.357342 0.747092 -0.092705
      vertex 0.422354 0.789778 0.000000
      vertex 0.450455 0.780982 -0.092705
    endloop
  endfacet
  facet normal 0.822116 0.299225 -0.484345
    outer loop
      vertex 0.768110 0.597584 -0.092705
      vertex 0.739018 0.542145 -0.176336
      vertex 0.710189 0.621353 -0.176336
    endloop
  endfacet
  facet normal -0.310994 0.854448 -0.416175
    outer loop
      vertex 0.357342 0.747092 -0.092705
      vertex 0.450455 0.780982 -0.092705
      vertex 0.416990 0.728068 -0.176336
    endloop
  endfacet
  facet normal -0.126245 -0.715968 -0.686623
    outer loop
      vertex 0.500000 0.257295 -0.176336
      vertex 0.416990 0.271932 -0.176336
      vertex 0.469380 0.326343 -0.242705
    endloop
  endfacet
  facet normal 0.000000 -0.692983 -0.720954
    outer loop
      vertex 0.500000 0.257295 -0.176336
      vertex 0.469380 0.326343 -0.242705
      vertex 0.530620 0.326343 -0.242705
    endloop
  endfacet
  facet normal -0.437439 -0.757666 -0.484345
    outer loop
      vertex 0.357342 0.252908 -0.092705
      vertex 0.343992 0.314077 -0.176336
      vertex 0.416990 0.271932 -0.176336
    endloop
  endfacet
  facet normal -0.601392 -0.783749 -0.155128
    outer loop
      vertex 0.357342 0.252908 -0.092705
      vertex 0.350000 0.240192 0.000000
      vertex 0.287868 0.287868 0.000000
    endloop
  endfacet
  facet normal -0.378051 -0.912695 -0.155128
    outer loop
      vertex 0.357342 0.252908 -0.092705
      vertex 0.422354 0.210222 0.000000
      vertex 0.350000 0.240192 0.000000
    endloop
  endfacet
  facet normal -0.584477 -0.696552 -0.416175
    outer loop
      vertex 0.357342 0.252908 -0.092705
      vertex 0.281435 0.316602 -0.092705
      vertex 0.343992 0.314077 -0.176336
    endloop
  endfacet
  facet normal -0.121638 -0.102067 -0.987313
    outer loop
      vertex 0.440410 0.428984 -0.285317
      vertex 0.419715 0.453647 -0.285317
      vertex 0.500000 0.500000 -0.300000
    endloop
  endfacet
  facet normal -0.079394 0.137514 -0.987313
    outer loop
      vertex 0.440410 0.571016 -0.285317
      vertex 0.468293 0.587114 -0.285317
      vertex 0.500000 0.500000 -0.300000
    endloop
  endfacet
  facet normal -0.631161 -0.752188 -0.189339
    outer loop
      vertex 0.357342 0.252908 -0.092705
      vertex 0.287868 0.287868 0.000000
      vertex 0.281435 0.316602 -0.092705
    endloop
  endfacet
  facet normal 0.149212 -0.054309 -0.987313
    outer loop
      vertex 0.591297 0.483902 -0.285317
      vertex 0.580285 0.453647 -0.285317
      vertex 0.500000 0.500000 -0.300000
    endloop
  endfacet
  facet normal 0.128805 -0.161883 -0.978368
    outer loop
      vertex 0.591297 0.483902 -0.285317
      vertex 0.500000 0.500000 -0.300000
      vertex 0.577646 0.500000 -0.289778
    endloop
  endfacet
  facet normal 0.381789 0.068342 -0.921719
    outer loop
      vertex 0.591297 0.483902 -0.285317
      vertex 0.577646 0.500000 -0.289778
      vertex 0.650000 0.500000 -0.259808
    endloop
  endfacet
  facet normal -0.420974 -0.153222 -0.894038
    outer loop
      vertex 0.334299 0.439690 -0.242705
      vertex 0.408703 0.483902 -0.285317
      vertex 0.419715 0.453647 -0.285317
    endloop
  endfacet
  facet normal -0.458719 -0.080885 -0.884892
    outer loop
      vertex 0.334299 0.439690 -0.242705
      vertex 0.323664 0.500000 -0.242705
      vertex 0.408703 0.483902 -0.285317
    endloop
  endfacet
  facet normal 0.343181 -0.287963 -0.894038
    outer loop
      vertex 0.635081 0.386654 -0.242705
      vertex 0.559590 0.428984 -0.285317
      vertex 0.580285 0.453647 -0.285317
    endloop
  endfacet
  facet normal 0.299408 -0.356820 -0.884892
    outer loop
      vertex 0.635081 0.386654 -0.242705
      vertex 0.588168 0.347289 -0.242705
      vertex 0.559590 0.428984 -0.285317
    endloop
  endfacet
  facet normal -0.077793 0.441185 -0.894038
    outer loop
      vertex 0.469380 0.673657 -0.242705
      vertex 0.500000 0.592705 -0.285317
      vertex 0.468293 0.587114 -0.285317
    endloop
  endfacet
  facet normal 0.000000 0.465796 -0.884892
    outer loop
      vertex 0.469380 0.673657 -0.242705
      vertex 0.530620 0.673657 -0.242705
      vertex 0.500000 0.592705 -0.285317
    endloop
  endfacet
  facet normal -0.682455 0.120335 -0.720954
    outer loop
      vertex 0.260982 0.542145 -0.176336
      vertex 0.334299 0.560310 -0.242705
      vertex 0.323664 0.500000 -0.242705
    endloop
  endfacet
  facet normal 0.237014 -0.651191 -0.720954
    outer loop
      vertex 0.583010 0.271932 -0.176336
      vertex 0.530620 0.326343 -0.242705
      vertex 0.588168 0.347289 -0.242705
    endloop
  endfacet
  facet normal -0.683169 0.248653 -0.686623
    outer loop
      vertex 0.260982 0.542145 -0.176336
      vertex 0.289811 0.621353 -0.176336
      vertex 0.334299 0.560310 -0.242705
    endloop
  endfacet
  facet normal 0.237014 0.651191 -0.720954
    outer loop
      vertex 0.583010 0.728068 -0.176336
      vertex 0.588168 0.652711 -0.242705
      vertex 0.530620 0.673657 -0.242705
    endloop
  endfacet
  facet normal -0.786364 0.603398 -0.132451
    outer loop
      vertex 0.281435 0.683398 -0.092705
      vertex 0.240192 0.650000 0.000000
      vertex 0.287868 0.712132 0.000000
    endloop
  endfacet
  facet normal 0.126245 -0.715968 -0.686623
    outer loop
      vertex 0.583010 0.271932 -0.176336
      vertex 0.500000 0.257295 -0.176336
      vertex 0.530620 0.326343 -0.242705
    endloop
  endfacet
  facet normal -0.631161 0.752188 -0.189339
    outer loop
      vertex 0.281435 0.683398 -0.092705
      vertex 0.287868 0.712132 0.000000
      vertex 0.357342 0.747092 -0.092705
    endloop
  endfacet
  facet normal 0.363506 0.629612 -0.686623
    outer loop
      vertex 0.583010 0.728068 -0.176336
      vertex 0.656008 0.685923 -0.176336
      vertex 0.588168 0.652711 -0.242705
    endloop
  endfacet
  facet normal -0.670195 0.562360 -0.484345
    outer loop
      vertex 0.281435 0.683398 -0.092705
      vertex 0.343992 0.685923 -0.176336
      vertex 0.289811 0.621353 -0.176336
    endloop
  endfacet
  facet normal -0.584477 0.696553 -0.416175
    outer loop
      vertex 0.281435 0.683398 -0.092705
      vertex 0.357342 0.747092 -0.092705
      vertex 0.343992 0.685923 -0.176336
    endloop
  endfacet
  facet normal 0.786363 0.603398 -0.132452
    outer loop
      vertex 0.718565 0.683398 -0.092705
      vertex 0.712132 0.712132 0.000000
      vertex 0.759808 0.650000 0.000000
    endloop
  endfacet
  facet normal -0.129376 -0.982710 -0.132451
    outer loop
      vertex 0.450455 0.219018 -0.092705
      vertex 0.500000 0.200000 0.000000
      vertex 0.422354 0.210222 0.000000
    endloop
  endfacet
  facet normal 0.848359 0.489800 -0.200957
    outer loop
      vertex 0.718565 0.683398 -0.092705
      vertex 0.759808 0.650000 0.000000
      vertex 0.768110 0.597584 -0.092705
    endloop
  endfacet
  facet normal -0.151921 -0.861586 -0.484345
    outer loop
      vertex 0.450455 0.219018 -0.092705
      vertex 0.416990 0.271932 -0.176336
      vertex 0.500000 0.257295 -0.176336
    endloop
  endfacet
  facet normal -0.335834 -0.922695 -0.189339
    outer loop
      vertex 0.450455 0.219018 -0.092705
      vertex 0.422354 0.210222 0.000000
      vertex 0.357342 0.252908 -0.092705
    endloop
  endfacet
  facet normal -0.310994 -0.854448 -0.416175
    outer loop
      vertex 0.450455 0.219018 -0.092705
      vertex 0.357342 0.252908 -0.092705
      vertex 0.416990 0.271932 -0.176336
    endloop
  endfacet
  facet normal 0.787464 0.454642 -0.416175
    outer loop
      vertex 0.718565 0.683398 -0.092705
      vertex 0.768110 0.597584 -0.092705
      vertex 0.710189 0.621353 -0.176336
    endloop
  endfacet
  facet normal 0.983106 -0.129428 -0.129428
    outer loop
      vertex 0.800000 0.500000 -0.000000
      vertex 0.789778 0.422354 0.000000
      vertex 0.789778 0.500000 -0.077646
    endloop
  endfacet
  facet normal 0.670195 0.562360 -0.484345
    outer loop
      vertex 0.718565 0.683398 -0.092705
      vertex 0.710189 0.621353 -0.176336
      vertex 0.656008 0.685923 -0.176336
    endloop
  endfacet
  facet normal 0.607420 -0.066344 -0.791606
    outer loop
      vertex 0.665701 0.439690 -0.242705
      vertex 0.650000 0.500000 -0.259808
      vertex 0.712132 0.500000 -0.212132
    endloop
  endfacet
  facet normal 0.420974 -0.153222 -0.894038
    outer loop
      vertex 0.665701 0.439690 -0.242705
      vertex 0.580285 0.453647 -0.285317
      vertex 0.591297 0.483902 -0.285317
    endloop
  endfacet
  facet normal -0.079394 -0.137514 -0.987313
    outer loop
      vertex 0.468293 0.412886 -0.285317
      vertex 0.440410 0.428984 -0.285317
      vertex 0.500000 0.500000 -0.300000
    endloop
  endfacet
  facet normal 0.427015 -0.142067 -0.893014
    outer loop
      vertex 0.665701 0.439690 -0.242705
      vertex 0.591297 0.483902 -0.285317
      vertex 0.650000 0.500000 -0.259808
    endloop
  endfacet
  facet normal 0.403391 -0.232898 -0.884892
    outer loop
      vertex 0.665701 0.439690 -0.242705
      vertex 0.635081 0.386654 -0.242705
      vertex 0.580285 0.453647 -0.285317
    endloop
  endfacet
  facet normal 0.363507 -0.629612 -0.686623
    outer loop
      vertex 0.656008 0.314077 -0.176336
      vertex 0.583010 0.271932 -0.176336
      vertex 0.588168 0.347289 -0.242705
    endloop
  endfacet
  facet normal 0.128805 0.161883 -0.978368
    outer loop
      vertex 0.591297 0.516098 -0.285317
      vertex 0.577646 0.500000 -0.289778
      vertex 0.500000 0.500000 -0.300000
    endloop
  endfacet
  facet normal 0.381789 -0.068342 -0.921719
    outer loop
      vertex 0.591297 0.516098 -0.285317
      vertex 0.650000 0.500000 -0.259808
      vertex 0.577646 0.500000 -0.289778
    endloop
  endfacet
  facet normal -0.343181 -0.287963 -0.894038
    outer loop
      vertex 0.364919 0.386654 -0.242705
      vertex 0.419715 0.453647 -0.285317
      vertex 0.440410 0.428984 -0.285317
    endloop
  endfacet
  facet normal 0.445441 -0.530855 -0.720954
    outer loop
      vertex 0.656008 0.314077 -0.176336
      vertex 0.588168 0.347289 -0.242705
      vertex 0.635081 0.386654 -0.242705
    endloop
  endfacet
  facet normal -0.403391 -0.232898 -0.884892
    outer loop
      vertex 0.364919 0.386654 -0.242705
      vertex 0.334299 0.439690 -0.242705
      vertex 0.419715 0.453647 -0.285317
    endloop
  endfacet
  facet normal -0.121638 0.102067 -0.987313
    outer loop
      vertex 0.419715 0.546353 -0.285317
      vertex 0.440410 0.571016 -0.285317
      vertex 0.500000 0.500000 -0.300000
    endloop
  endfacet
  facet normal 0.129376 -0.982710 -0.132451
    outer loop
      vertex 0.549545 0.219018 -0.092705
      vertex 0.577646 0.210222 0.000000
      vertex 0.500000 0.200000 0.000000
    endloop
  endfacet
  facet normal -0.000000 -0.979600 -0.200957
    outer loop
      vertex 0.549545 0.219018 -0.092705
      vertex 0.500000 0.200000 0.000000
      vertex 0.450455 0.219018 -0.092705
    endloop
  endfacet
  facet normal -0.682455 -0.120335 -0.720954
    outer loop
      vertex 0.260982 0.457855 -0.176336
      vertex 0.323664 0.500000 -0.242705
      vertex 0.334299 0.439690 -0.242705
    endloop
  endfacet
  facet normal -0.223995 0.387972 -0.894038
    outer loop
      vertex 0.411832 0.652711 -0.242705
      vertex 0.468293 0.587114 -0.285317
      vertex 0.440410 0.571016 -0.285317
    endloop
  endfacet
  facet normal -0.727013 0.000000 -0.686623
    outer loop
      vertex 0.260982 0.457855 -0.176336
      vertex 0.260982 0.542145 -0.176336
      vertex 0.323664 0.500000 -0.242705
    endloop
  endfacet
  facet normal -0.159311 0.437705 -0.884892
    outer loop
      vertex 0.411832 0.652711 -0.242705
      vertex 0.469380 0.673657 -0.242705
      vertex 0.468293 0.587114 -0.285317
    endloop
  endfacet
  facet normal 0.151921 -0.861586 -0.484345
    outer loop
      vertex 0.549545 0.219018 -0.092705
      vertex 0.500000 0.257295 -0.176336
      vertex 0.583010 0.271932 -0.176336
    endloop
  endfacet
  facet normal -0.000000 -0.909285 -0.416175
    outer loop
      vertex 0.549545 0.219018 -0.092705
      vertex 0.450455 0.219018 -0.092705
      vertex 0.500000 0.257295 -0.176336
    endloop
  endfacet
  facet normal -0.822115 0.299226 -0.484345
    outer loop
      vertex 0.231890 0.597584 -0.092705
      vertex 0.289811 0.621353 -0.176336
      vertex 0.260982 0.542145 -0.176336
    endloop
  endfacet
  facet normal -0.915740 0.379312 -0.132451
    outer loop
      vertex 0.231890 0.597584 -0.092705
      vertex 0.210222 0.577646 0.000000
      vertex 0.240192 0.650000 0.000000
    endloop
  endfacet
  facet normal 0.149212 0.054309 -0.987313
    outer loop
      vertex 0.580285 0.546353 -0.285317
      vertex 0.591297 0.516098 -0.285317
      vertex 0.500000 0.500000 -0.300000
    endloop
  endfacet
endsolid Mesh
