25.89019
28.88082
28.88082
28.88082
28.88082
25.89019
28.88082
25.89019
25.89019
25.89019
25.89019
25.89019
22.81396
22.81396
19.38423
15.41227
15.41227
10.42334
15.41227
15.41227
19.38423
15.41227
15.41227
19.38423
19.38423
19.38423
19.38423
19.38423
19.38423
19.38423
22.81396
19.38423
19.38423
19.38423
15.41227
15.41227
19.38423
15.41227
19.38423
19.38423
15.41227
19.38423
19.38423
19.38423
19.38423
19.38423
19.38423
22.81396
22.81396