SOLID  PUCE  148  2330  700  0.00005  293  UNKNOWN  25000000  FRONT  puce.stl
SOLID  CERAMIQUE  30  3900  900  0.00005  293  UNKNOWN  0  FRONT  ceramique.stl
SOLID  RADIATEUR  185  2700  900  0.00015  293  UNKNOWN  0  FRONT  radiateur.stl
H_BOUNDARY_FOR_SOLID  SCONVECTION  0  0  15  293  0  sconvection.stl
H_BOUNDARY_FOR_SOLID  SECHANGEUR  0  0  1000  293  0  sechangeur.stl
