solid cb
  facet normal -1 0 0
    outer loop
      vertex -2.4 -2.4 -0.4
      vertex -2.4 -2.4 +3
      vertex -2.4 +2.4 +3
    endloop
  endfacet
  facet normal -1 0 0
    outer loop
      vertex -2.4 -2.4 -0.4
      vertex -2.4 +2.4 +3
      vertex -2.4 +2.4 -0.4
    endloop
  endfacet
  facet normal 1 0 0
    outer loop
      vertex +2.4 -2.4 -0.4
      vertex +2.4 +2.4 +3
      vertex +2.4 -2.4 +3
    endloop
  endfacet
  facet normal 1 0 0
    outer loop
      vertex +2.4 -2.4 -0.4
      vertex +2.4 +2.4 -0.4
      vertex +2.4 +2.4 +3
    endloop
  endfacet
  facet normal 0 -1 0
    outer loop
      vertex -2.4 -2.4 -0.4
      vertex +2.4 -2.4 -0.4
      vertex +2.4 -2.4 +3
    endloop
  endfacet
  facet normal 0 -1 0
    outer loop
      vertex -2.4 -2.4 -0.4
      vertex +2.4 -2.4 +3
      vertex -2.4 -2.4 +3
    endloop
  endfacet
  facet normal 0 1 0
    outer loop
      vertex -2.4 +2.4 -0.4
      vertex +2.4 +2.4 +3
      vertex +2.4 +2.4 -0.4
    endloop
  endfacet
  facet normal 0 1 0
    outer loop
      vertex -2.4 +2.4 -0.4
      vertex -2.4 +2.4 +3
      vertex +2.4 +2.4 +3
    endloop
  endfacet
  facet normal 0 0 -1
    outer loop
      vertex -2.4 -2.4 -0.4
      vertex -2.4 +2.4 -0.4
      vertex +2.4 +2.4 -0.4
    endloop
  endfacet
  facet normal 0 0 -1
    outer loop
      vertex -2.4 -2.4 -0.4
      vertex +2.4 +2.4 -0.4
      vertex +2.4 -2.4 -0.4
    endloop
  endfacet
  facet normal 0 0 1
    outer loop
      vertex -2.4 -2.4 +3
      vertex +2.4 +2.4 +3
      vertex -2.4 +2.4 +3
    endloop
  endfacet
  facet normal 0 0 1
    outer loop
      vertex -2.4 -2.4 +3
      vertex +2.4 -2.4 +3
      vertex +2.4 +2.4 +3
    endloop
  endfacet 
  facet normal 1 0 0
    outer loop
      vertex -2.2 -2.2 -0.2
      vertex -2.2 +2.2 +2.8
      vertex -2.2 -2.2 +2.8
    endloop
  endfacet
  facet normal 1 0 0
    outer loop
      vertex -2.2 -2.2 -0.2
      vertex -2.2 +2.2 -0.2
      vertex -2.2 +2.2 +2.8
    endloop
  endfacet
  facet normal -1 0 0
    outer loop
      vertex +2.2 -2.2 -0.2
      vertex +2.2 -2.2 +2.8
      vertex +2.2 +2.2 +2.8
    endloop
  endfacet
  facet normal -1 0 0
    outer loop
      vertex +2.2 -2.2 -0.2
      vertex +2.2 +2.2 +2.8
      vertex +2.2 +2.2 -0.2
    endloop
  endfacet
  facet normal 0 1 0
    outer loop
      vertex -2.2 -2.2 -0.2
      vertex +2.2 -2.2 +2.8
      vertex +2.2 -2.2 -0.2
    endloop
  endfacet
  facet normal 0 1 0
    outer loop
      vertex -2.2 -2.2 -0.2
      vertex -2.2 -2.2 +2.8
      vertex +2.2 -2.2 +2.8
    endloop
  endfacet
  facet normal 0 -1 0
    outer loop
      vertex -2.2 +2.2 -0.2
      vertex +2.2 +2.2 -0.2
      vertex +2.2 +2.2 +2.8
    endloop
  endfacet
  facet normal 0 -1 0
    outer loop
      vertex -2.2 +2.2 -0.2
      vertex +2.2 +2.2 +2.8
      vertex -2.2 +2.2 +2.8
    endloop
  endfacet
  facet normal 0 0 1
    outer loop
      vertex -2.2 -2.2 -0.2
      vertex +2.2 +2.2 -0.2
      vertex -2.2 +2.2 -0.2
    endloop
  endfacet
  facet normal 0 0 1
    outer loop
      vertex -2.2 -2.2 -0.2
      vertex +2.2 -2.2 -0.2
      vertex +2.2 +2.2 -0.2
    endloop
  endfacet
  facet normal 0 0 -1
    outer loop
      vertex -2.2 -2.2 +2.8
      vertex -2.2 +2.2 +2.8
      vertex +2.2 +2.2 +2.8
    endloop
  endfacet
  facet normal 0 0 -1
    outer loop
      vertex -2.2 -2.2 +2.8
      vertex +2.2 +2.2 +2.8
      vertex +2.2 -2.2 +2.8
    endloop
  endfacet  
endsolid
