solid cb
  facet normal -1 0 0
    outer loop
      vertex 0 -.01000000000000000000 -.01000000000000000000
      vertex 0 .01000000000000000000 .01000000000000000000
      vertex 0 .01000000000000000000 -.01000000000000000000
    endloop
  endfacet
  facet normal -1 0 0
    outer loop
      vertex 0 -.01000000000000000000 .01000000000000000000
      vertex 0 .01000000000000000000 .01000000000000000000
      vertex 0 -.01000000000000000000 -.01000000000000000000
    endloop
  endfacet 
  facet normal 0 -1 0
    outer loop
      vertex 0 -.01000000000000000000 -.01000000000000000000
      vertex .001 -.01000000000000000000 .01000000000000000000
      vertex 0 -.01000000000000000000 .01000000000000000000
    endloop
  endfacet
  facet normal 0 -1 0
    outer loop
      vertex .001 -.01000000000000000000 -.01000000000000000000
      vertex .001 -.01000000000000000000 .01000000000000000000
      vertex 0 -.01000000000000000000 -.01000000000000000000
    endloop
  endfacet 
  facet normal 0 1 0
    outer loop
      vertex 0 .01000000000000000000 -.01000000000000000000
      vertex 0 .01000000000000000000 .01000000000000000000
      vertex .001 .01000000000000000000 .01000000000000000000
    endloop
  endfacet
  facet normal 0 1 0
    outer loop
      vertex .001 .01000000000000000000 -.01000000000000000000
      vertex 0 .01000000000000000000 -.01000000000000000000
      vertex .001 .01000000000000000000 .01000000000000000000
    endloop
  endfacet 
  facet normal 0 0 -1
    outer loop
      vertex 0 -.01000000000000000000 -.01000000000000000000
      vertex .001 .01000000000000000000 -.01000000000000000000
      vertex .001 -.01000000000000000000 -.01000000000000000000
    endloop
  endfacet
  facet normal 0 0 -1
    outer loop
      vertex 0 .01000000000000000000 -.01000000000000000000
      vertex .001 .01000000000000000000 -.01000000000000000000
      vertex 0 -.01000000000000000000 -.01000000000000000000
    endloop
  endfacet 
  facet normal 0 0 1
    outer loop
      vertex 0 -.01000000000000000000 .01000000000000000000
      vertex .001 -.01000000000000000000 .01000000000000000000
      vertex .001 .01000000000000000000 .01000000000000000000
    endloop
  endfacet
  facet normal 0 0 1
    outer loop
      vertex 0 .01000000000000000000 .01000000000000000000
      vertex 0 -.01000000000000000000 .01000000000000000000
      vertex .001 .01000000000000000000 .01000000000000000000
    endloop
  endfacet 
  facet normal 0 -1 0
    outer loop
      vertex .001 -.01000000000000000000 -.01000000000000000000
      vertex .002 -.01000000000000000000 .01000000000000000000
      vertex .001 -.01000000000000000000 .01000000000000000000
    endloop
  endfacet
  facet normal 0 -1 0
    outer loop
      vertex .002 -.01000000000000000000 -.01000000000000000000
      vertex .002 -.01000000000000000000 .01000000000000000000
      vertex .001 -.01000000000000000000 -.01000000000000000000
    endloop
  endfacet 
  facet normal 0 1 0
    outer loop
      vertex .001 .01000000000000000000 -.01000000000000000000
      vertex .001 .01000000000000000000 .01000000000000000000
      vertex .002 .01000000000000000000 .01000000000000000000
    endloop
  endfacet
  facet normal 0 1 0
    outer loop
      vertex .002 .01000000000000000000 -.01000000000000000000
      vertex .001 .01000000000000000000 -.01000000000000000000
      vertex .002 .01000000000000000000 .01000000000000000000
    endloop
  endfacet 
  facet normal 0 0 -1
    outer loop
      vertex .001 -.01000000000000000000 -.01000000000000000000
      vertex .002 .01000000000000000000 -.01000000000000000000
      vertex .002 -.01000000000000000000 -.01000000000000000000
    endloop
  endfacet
  facet normal 0 0 -1
    outer loop
      vertex .001 .01000000000000000000 -.01000000000000000000
      vertex .002 .01000000000000000000 -.01000000000000000000
      vertex .001 -.01000000000000000000 -.01000000000000000000
    endloop
  endfacet 
  facet normal 0 0 1
    outer loop
      vertex .001 -.01000000000000000000 .01000000000000000000
      vertex .002 -.01000000000000000000 .01000000000000000000
      vertex .002 .01000000000000000000 .01000000000000000000
    endloop
  endfacet
  facet normal 0 0 1
    outer loop
      vertex .001 .01000000000000000000 .01000000000000000000
      vertex .001 -.01000000000000000000 .01000000000000000000
      vertex .002 .01000000000000000000 .01000000000000000000
    endloop
  endfacet 
  facet normal -1 0 0
    outer loop
      vertex .002 -.05000000000000000000 -.05000000000000000000
      vertex .002 -.05000000000000000000 .05000000000000000000
      vertex .002 -.01000000000000000000 .01000000000000000000
    endloop
  endfacet
  facet normal -1 0 0
    outer loop
      vertex .002 -.01000000000000000000 -.01000000000000000000
      vertex .002 -.05000000000000000000 -.05000000000000000000
      vertex .002 -.01000000000000000000 .01000000000000000000
    endloop
  endfacet 
  facet normal -1 0 0
    outer loop
      vertex .002 .01000000000000000000 -.01000000000000000000
      vertex .002 .01000000000000000000 .01000000000000000000
      vertex .002 .05000000000000000000 .05000000000000000000
    endloop
  endfacet
  facet normal -1 0 0
    outer loop
      vertex .002 .05000000000000000000 -.05000000000000000000
      vertex .002 .01000000000000000000 -.01000000000000000000
      vertex .002 .05000000000000000000 .05000000000000000000
    endloop
  endfacet 
  facet normal -1 0 0
    outer loop
      vertex .002 -.05000000000000000000 -.05000000000000000000
      vertex .002 -.01000000000000000000 -.01000000000000000000
      vertex .002 .05000000000000000000 -.05000000000000000000
    endloop
  endfacet
  facet normal -1 0 0
    outer loop
      vertex .002 -.01000000000000000000 -.01000000000000000000
      vertex .002 .01000000000000000000 -.01000000000000000000
      vertex .002 .05000000000000000000 -.05000000000000000000
    endloop
  endfacet 
  facet normal -1 0 0
    outer loop
      vertex .002 -.01000000000000000000 .01000000000000000000
      vertex .002 -.05000000000000000000 .05000000000000000000
      vertex .002 .01000000000000000000 .01000000000000000000
    endloop
  endfacet
  facet normal -1 0 0
    outer loop
      vertex .002 -.05000000000000000000 .05000000000000000000
      vertex .002 .05000000000000000000 .05000000000000000000
      vertex .002 .01000000000000000000 .01000000000000000000
    endloop
  endfacet  
  facet normal 0 -1 0
    outer loop
      vertex .002 -.05000000000000000000 -.05000000000000000000
      vertex .00350000000000000000 -.05000000000000000000 0
      vertex .002 -.05000000000000000000 .05000000000000000000
    endloop
  endfacet
  facet normal 0 -1 0
    outer loop
      vertex .005 -.05000000000000000000 -.05000000000000000000
      vertex .005 -.05000000000000000000 -.04166666666666666667
      vertex .00350000000000000000 -.05000000000000000000 0
    endloop
  endfacet
  facet normal 0 -1 0
    outer loop
      vertex .005 -.05000000000000000000 -.04166666666666666667
      vertex .005 -.05000000000000000000 -.03333333333333333334
      vertex .00350000000000000000 -.05000000000000000000 0
    endloop
  endfacet
  facet normal 0 -1 0
    outer loop
      vertex .005 -.05000000000000000000 -.03333333333333333334
      vertex .005 -.05000000000000000000 -.02500000000000000000
      vertex .00350000000000000000 -.05000000000000000000 0
    endloop
  endfacet
  facet normal 0 -1 0
    outer loop
      vertex .005 -.05000000000000000000 -.02500000000000000000
      vertex .005 -.05000000000000000000 -.01666666666666666667
      vertex .00350000000000000000 -.05000000000000000000 0
    endloop
  endfacet
  facet normal 0 -1 0
    outer loop
      vertex .005 -.05000000000000000000 -.01666666666666666667
      vertex .005 -.05000000000000000000 -.00833333333333333334
      vertex .00350000000000000000 -.05000000000000000000 0
    endloop
  endfacet
  facet normal 0 -1 0
    outer loop
      vertex .005 -.05000000000000000000 -.00833333333333333334
      vertex .005 -.05000000000000000000 0
      vertex .00350000000000000000 -.05000000000000000000 0
    endloop
  endfacet
  facet normal 0 -1 0
    outer loop
      vertex .005 -.05000000000000000000 0
      vertex .005 -.05000000000000000000 .00833333333333333333
      vertex .00350000000000000000 -.05000000000000000000 0
    endloop
  endfacet
  facet normal 0 -1 0
    outer loop
      vertex .005 -.05000000000000000000 .00833333333333333333
      vertex .005 -.05000000000000000000 .01666666666666666666
      vertex .00350000000000000000 -.05000000000000000000 0
    endloop
  endfacet
  facet normal 0 -1 0
    outer loop
      vertex .005 -.05000000000000000000 .01666666666666666666
      vertex .005 -.05000000000000000000 .02500000000000000000
      vertex .00350000000000000000 -.05000000000000000000 0
    endloop
  endfacet
  facet normal 0 -1 0
    outer loop
      vertex .005 -.05000000000000000000 .02500000000000000000
      vertex .005 -.05000000000000000000 .03333333333333333333
      vertex .00350000000000000000 -.05000000000000000000 0
    endloop
  endfacet
  facet normal 0 -1 0
    outer loop
      vertex .005 -.05000000000000000000 .03333333333333333333
      vertex .005 -.05000000000000000000 .04166666666666666666
      vertex .00350000000000000000 -.05000000000000000000 0
    endloop
  endfacet
  facet normal 0 -1 0
    outer loop
      vertex .005 -.05000000000000000000 .04166666666666666666
      vertex .005 -.05000000000000000000 .05000000000000000000
      vertex .00350000000000000000 -.05000000000000000000 0
    endloop
  endfacet
  facet normal 0 -1 0
    outer loop
      vertex .00200000000000000000 -.05000000000000000000 -.05000000000000000000
      vertex .00500000000000000000 -.05000000000000000000 -.05000000000000000000
      vertex .00350000000000000000 -.05000000000000000000 0
    endloop
  endfacet
  facet normal 0 -1 0
    outer loop
      vertex .00200000000000000000 -.05000000000000000000 .05000000000000000000
      vertex .00350000000000000000 -.05000000000000000000 0
      vertex .00500000000000000000 -.05000000000000000000 .05000000000000000000
    endloop
  endfacet 
  facet normal 0 1 0
    outer loop
      vertex .002 .05000000000000000000 -.05000000000000000000
      vertex .002 .05000000000000000000 .05000000000000000000
      vertex .00350000000000000000 .05000000000000000000 0
    endloop
  endfacet
  facet normal 0 1 0
    outer loop
      vertex .005 .05000000000000000000 -.05000000000000000000
      vertex .00350000000000000000 .05000000000000000000 0
      vertex .005 .05000000000000000000 -.04166666666666666667
    endloop
  endfacet
  facet normal 0 1 0
    outer loop
      vertex .005 .05000000000000000000 -.04166666666666666667
      vertex .00350000000000000000 .05000000000000000000 0
      vertex .005 .05000000000000000000 -.03333333333333333334
    endloop
  endfacet
  facet normal 0 1 0
    outer loop
      vertex .005 .05000000000000000000 -.03333333333333333334
      vertex .00350000000000000000 .05000000000000000000 0
      vertex .005 .05000000000000000000 -.02500000000000000000
    endloop
  endfacet
  facet normal 0 1 0
    outer loop
      vertex .005 .05000000000000000000 -.02500000000000000000
      vertex .00350000000000000000 .05000000000000000000 0
      vertex .005 .05000000000000000000 -.01666666666666666667
    endloop
  endfacet
  facet normal 0 1 0
    outer loop
      vertex .005 .05000000000000000000 -.01666666666666666667
      vertex .00350000000000000000 .05000000000000000000 0
      vertex .005 .05000000000000000000 -.00833333333333333334
    endloop
  endfacet
  facet normal 0 1 0
    outer loop
      vertex .005 .05000000000000000000 -.00833333333333333334
      vertex .00350000000000000000 .05000000000000000000 0
      vertex .005 .05000000000000000000 0
    endloop
  endfacet
  facet normal 0 1 0
    outer loop
      vertex .005 .05000000000000000000 0
      vertex .00350000000000000000 .05000000000000000000 0
      vertex .005 .05000000000000000000 .00833333333333333333
    endloop
  endfacet
  facet normal 0 1 0
    outer loop
      vertex .005 .05000000000000000000 .00833333333333333333
      vertex .00350000000000000000 .05000000000000000000 0
      vertex .005 .05000000000000000000 .01666666666666666666
    endloop
  endfacet
  facet normal 0 1 0
    outer loop
      vertex .005 .05000000000000000000 .01666666666666666666
      vertex .00350000000000000000 .05000000000000000000 0
      vertex .005 .05000000000000000000 .02500000000000000000
    endloop
  endfacet
  facet normal 0 1 0
    outer loop
      vertex .005 .05000000000000000000 .02500000000000000000
      vertex .00350000000000000000 .05000000000000000000 0
      vertex .005 .05000000000000000000 .03333333333333333333
    endloop
  endfacet
  facet normal 0 1 0
    outer loop
      vertex .005 .05000000000000000000 .03333333333333333333
      vertex .00350000000000000000 .05000000000000000000 0
      vertex .005 .05000000000000000000 .04166666666666666666
    endloop
  endfacet
  facet normal 0 1 0
    outer loop
      vertex .005 .05000000000000000000 .04166666666666666666
      vertex .00350000000000000000 .05000000000000000000 0
      vertex .005 .05000000000000000000 .05000000000000000000
    endloop
  endfacet
  facet normal 0 1 0
    outer loop
      vertex .00200000000000000000 .05000000000000000000 -.05000000000000000000
      vertex .00350000000000000000 .05000000000000000000 0
      vertex .00500000000000000000 .05000000000000000000 -.05000000000000000000
    endloop
  endfacet
  facet normal 0 1 0
    outer loop
      vertex .00200000000000000000 .05000000000000000000 .05000000000000000000
      vertex .00500000000000000000 .05000000000000000000 .05000000000000000000
      vertex .00350000000000000000 .05000000000000000000 0
    endloop
  endfacet 
  facet normal 0 0 -1
    outer loop
      vertex .002 -.05000000000000000000 -.05000000000000000000
      vertex .002 .05000000000000000000 -.05000000000000000000
      vertex .00350000000000000000 0 -.05000000000000000000
    endloop
  endfacet
  facet normal 0 0 -1
    outer loop
      vertex .005 -.05000000000000000000 -.05000000000000000000
      vertex .00350000000000000000 0 -.05000000000000000000
      vertex .005 -.04166666666666666667 -.05000000000000000000
    endloop
  endfacet
  facet normal 0 0 -1
    outer loop
      vertex .005 -.04166666666666666667 -.05000000000000000000
      vertex .00350000000000000000 0 -.05000000000000000000
      vertex .005 -.03333333333333333334 -.05000000000000000000
    endloop
  endfacet
  facet normal 0 0 -1
    outer loop
      vertex .005 -.03333333333333333334 -.05000000000000000000
      vertex .00350000000000000000 0 -.05000000000000000000
      vertex .005 -.02500000000000000000 -.05000000000000000000
    endloop
  endfacet
  facet normal 0 0 -1
    outer loop
      vertex .005 -.02500000000000000000 -.05000000000000000000
      vertex .00350000000000000000 0 -.05000000000000000000
      vertex .005 -.01666666666666666667 -.05000000000000000000
    endloop
  endfacet
  facet normal 0 0 -1
    outer loop
      vertex .005 -.01666666666666666667 -.05000000000000000000
      vertex .00350000000000000000 0 -.05000000000000000000
      vertex .005 -.00833333333333333334 -.05000000000000000000
    endloop
  endfacet
  facet normal 0 0 -1
    outer loop
      vertex .005 -.00833333333333333334 -.05000000000000000000
      vertex .00350000000000000000 0 -.05000000000000000000
      vertex .005 0 -.05000000000000000000
    endloop
  endfacet
  facet normal 0 0 -1
    outer loop
      vertex .005 0 -.05000000000000000000
      vertex .00350000000000000000 0 -.05000000000000000000
      vertex .005 .00833333333333333333 -.05000000000000000000
    endloop
  endfacet
  facet normal 0 0 -1
    outer loop
      vertex .005 .00833333333333333333 -.05000000000000000000
      vertex .00350000000000000000 0 -.05000000000000000000
      vertex .005 .01666666666666666666 -.05000000000000000000
    endloop
  endfacet
  facet normal 0 0 -1
    outer loop
      vertex .005 .01666666666666666666 -.05000000000000000000
      vertex .00350000000000000000 0 -.05000000000000000000
      vertex .005 .02500000000000000000 -.05000000000000000000
    endloop
  endfacet
  facet normal 0 0 -1
    outer loop
      vertex .005 .02500000000000000000 -.05000000000000000000
      vertex .00350000000000000000 0 -.05000000000000000000
      vertex .005 .03333333333333333333 -.05000000000000000000
    endloop
  endfacet
  facet normal 0 0 -1
    outer loop
      vertex .005 .03333333333333333333 -.05000000000000000000
      vertex .00350000000000000000 0 -.05000000000000000000
      vertex .005 .04166666666666666666 -.05000000000000000000
    endloop
  endfacet
  facet normal 0 0 -1
    outer loop
      vertex .005 .04166666666666666666 -.05000000000000000000
      vertex .00350000000000000000 0 -.05000000000000000000
      vertex .005 .05000000000000000000 -.05000000000000000000
    endloop
  endfacet
  facet normal 0 0 -1
    outer loop
      vertex .00200000000000000000 -.05000000000000000000 -.05000000000000000000
      vertex .00350000000000000000 0 -.05000000000000000000
      vertex .00500000000000000000 -.05000000000000000000 -.05000000000000000000
    endloop
  endfacet
  facet normal 0 0 -1
    outer loop
      vertex .00200000000000000000 .05000000000000000000 -.05000000000000000000
      vertex .00500000000000000000 .05000000000000000000 -.05000000000000000000
      vertex .00350000000000000000 0 -.05000000000000000000
    endloop
  endfacet 
  facet normal 0 0 1
    outer loop
      vertex .002 -.05000000000000000000 .05000000000000000000
      vertex .00350000000000000000 0 .05000000000000000000
      vertex .002 .05000000000000000000 .05000000000000000000
    endloop
  endfacet
  facet normal 0 0 1
    outer loop
      vertex .005 -.05000000000000000000 .05000000000000000000
      vertex .005 -.04166666666666666667 .05000000000000000000
      vertex .00350000000000000000 0 .05000000000000000000
    endloop
  endfacet
  facet normal 0 0 1
    outer loop
      vertex .005 -.04166666666666666667 .05000000000000000000
      vertex .005 -.03333333333333333334 .05000000000000000000
      vertex .00350000000000000000 0 .05000000000000000000
    endloop
  endfacet
  facet normal 0 0 1
    outer loop
      vertex .005 -.03333333333333333334 .05000000000000000000
      vertex .005 -.02500000000000000000 .05000000000000000000
      vertex .00350000000000000000 0 .05000000000000000000
    endloop
  endfacet
  facet normal 0 0 1
    outer loop
      vertex .005 -.02500000000000000000 .05000000000000000000
      vertex .005 -.01666666666666666667 .05000000000000000000
      vertex .00350000000000000000 0 .05000000000000000000
    endloop
  endfacet
  facet normal 0 0 1
    outer loop
      vertex .005 -.01666666666666666667 .05000000000000000000
      vertex .005 -.00833333333333333334 .05000000000000000000
      vertex .00350000000000000000 0 .05000000000000000000
    endloop
  endfacet
  facet normal 0 0 1
    outer loop
      vertex .005 -.00833333333333333334 .05000000000000000000
      vertex .005 0 .05000000000000000000
      vertex .00350000000000000000 0 .05000000000000000000
    endloop
  endfacet
  facet normal 0 0 1
    outer loop
      vertex .005 0 .05000000000000000000
      vertex .005 .00833333333333333333 .05000000000000000000
      vertex .00350000000000000000 0 .05000000000000000000
    endloop
  endfacet
  facet normal 0 0 1
    outer loop
      vertex .005 .00833333333333333333 .05000000000000000000
      vertex .005 .01666666666666666666 .05000000000000000000
      vertex .00350000000000000000 0 .05000000000000000000
    endloop
  endfacet
  facet normal 0 0 1
    outer loop
      vertex .005 .01666666666666666666 .05000000000000000000
      vertex .005 .02500000000000000000 .05000000000000000000
      vertex .00350000000000000000 0 .05000000000000000000
    endloop
  endfacet
  facet normal 0 0 1
    outer loop
      vertex .005 .02500000000000000000 .05000000000000000000
      vertex .005 .03333333333333333333 .05000000000000000000
      vertex .00350000000000000000 0 .05000000000000000000
    endloop
  endfacet
  facet normal 0 0 1
    outer loop
      vertex .005 .03333333333333333333 .05000000000000000000
      vertex .005 .04166666666666666666 .05000000000000000000
      vertex .00350000000000000000 0 .05000000000000000000
    endloop
  endfacet
  facet normal 0 0 1
    outer loop
      vertex .005 .04166666666666666666 .05000000000000000000
      vertex .005 .05000000000000000000 .05000000000000000000
      vertex .00350000000000000000 0 .05000000000000000000
    endloop
  endfacet
  facet normal 0 0 1
    outer loop
      vertex .00200000000000000000 -.05000000000000000000 .05000000000000000000
      vertex .00500000000000000000 -.05000000000000000000 .05000000000000000000
      vertex .00350000000000000000 0 .05000000000000000000
    endloop
  endfacet
  facet normal 0 0 1
    outer loop
      vertex .00200000000000000000 .05000000000000000000 .05000000000000000000
      vertex .00350000000000000000 0 .05000000000000000000
      vertex .00500000000000000000 .05000000000000000000 .05000000000000000000
    endloop
  endfacet  
endsolid
