solid cb
  facet normal -1 0 0
    outer loop
      vertex -1.9 -1.9 0.1
      vertex -1.9 -1.9 0.8
      vertex -1.9 -0.9 0.8
    endloop
  endfacet
  facet normal -1 0 0
    outer loop
      vertex -1.9 -1.9 0.1
      vertex -1.9 -0.9 0.8
      vertex -1.9 -0.9 0.1
    endloop
  endfacet
  facet normal 1 0 0
    outer loop
      vertex -1.75 -1.9 0.1
      vertex -1.75 -0.9 0.8
      vertex -1.75 -1.9 0.8
    endloop
  endfacet
  facet normal 1 0 0
    outer loop
      vertex -1.75 -1.9 0.1
      vertex -1.75 -0.9 0.1
      vertex -1.75 -0.9 0.8
    endloop
  endfacet
  facet normal 0 -1 0
    outer loop
      vertex -1.9 -1.9 0.1
      vertex -1.75 -1.9 0.1
      vertex -1.75 -1.9 0.8
    endloop
  endfacet
  facet normal 0 -1 0
    outer loop
      vertex -1.9 -1.9 0.1
      vertex -1.75 -1.9 0.8
      vertex -1.9 -1.9 0.8
    endloop
  endfacet
  facet normal 0 1 0
    outer loop
      vertex -1.9 -0.9 0.1
      vertex -1.75 -0.9 0.8
      vertex -1.75 -0.9 0.1
    endloop
  endfacet
  facet normal 0 1 0
    outer loop
      vertex -1.9 -0.9 0.1
      vertex -1.9 -0.9 0.8
      vertex -1.75 -0.9 0.8
    endloop
  endfacet
  facet normal 0 0 -1
    outer loop
      vertex -1.9 -1.9 0.1
      vertex -1.9 -0.9 0.1
      vertex -1.75 -0.9 0.1
    endloop
  endfacet
  facet normal 0 0 -1
    outer loop
      vertex -1.9 -1.9 0.1
      vertex -1.75 -0.9 0.1
      vertex -1.75 -1.9 0.1
    endloop
  endfacet
  facet normal 0 0 1
    outer loop
      vertex -1.9 -1.9 0.8
      vertex -1.75 -0.9 0.8
      vertex -1.9 -0.9 0.8
    endloop
  endfacet
  facet normal 0 0 1
    outer loop
      vertex -1.9 -1.9 0.8
      vertex -1.75 -1.9 0.8
      vertex -1.75 -0.9 0.8
    endloop
  endfacet  
endsolid
